Joining attribute data with geofi data • geofi
…
px_raw <-
  pxweb_get(url = "http://pxnet2.stat.fi/PXWeb/api/v1/en/Kuntien_avainluvut/2020/kuntien_avainluvut_2020_aikasarja.px",
            query = pxweb_query_list)

library(dplyr)
library(janitor)
library(sf)
px_data <- as_tibble(
  as.data.frame(px_raw, 
                column.name.type = "text", 
                variable.value.type = "text")
  ) %>% setNames(make_clean_names(names(.)))
px_data
#> # A tibble: 12,800 x 4
#>    region_2020   information                           year  municipal_key_figu…
#>    <chr>         <chr>                                 <chr>               <dbl>
#>  1 WHOLE COUNTRY Degree of urbanisation, %             2019                 86.4
#>  2 WHOLE COUNTRY Population                            2019            5525292  
#>  3 WHOLE COUNTRY Population change from the previous … 2019                  0.1
#>  4 WHOLE COUNTRY Share of persons aged under 15 of th… 2019                 15.8
#>  5 WHOLE COUNTRY Share of persons aged 15 to 64 of th… 2019                 62  
#>  6 WHOLE COUNTRY Share of persons aged over 64 of the… 2019                 22.3
#>  7 WHOLE COUNTRY Share of Swedish-speakers of the pop… 2019                  5.2
#>  8 WHOLE COUNTRY Share of foreign citizens of the pop… 2019                  4.8
#>  9 WHOLE COUNTRY Excess of births, persons             2019              -8336  
#> 10 WHOLE COUNTRY Intermunicipal migration gain/loss, … 2019                  0  
#> # … with 12,790 more rows

Once we have the data in long format we can observe the region_2020-column.

count(px_data, region_2020)
#> # A tibble: 400 x 2
#>    region_2020                            n
#>  * <chr>                              <int>
#>  1 Äänekoski                             32
#>  2 Äänekoski sub-regional unit           32
#>  3 Åboland-Turunmaa sub-regional unit    32
#>  4 Ähtäri                                32
#>  5 Akaa                                  32
#>  6 Alajärvi                              32
#>  7 Åland                                 32
#>  8 Ålands landsbygd sub-regional unit    32
#>  9 Ålands skärgård sub-regional unit     32
#> 10 Alavieska                             32
#> # … with 390 more rows
…
# Download data 
px_raw <- 
 pxweb_get(url = "http://pxnet2.stat.fi/PXWeb/api/v1/en/Postinumeroalueittainen_avoin_tieto/2019/paavo_1_he_2019.px",
           query = pxweb_query_list)

px_data <- as_tibble(
  as.data.frame(px_raw, 
                column.name.type = "text", 
                variable.value.type = "text")
  ) %>% setNames(make_clean_names(names(.)))
px_data %>% 
  filter(postal_code_area != "Finland")
#> # A tibble: 72,624 x 3
#>    postal_code_area               data                paavo_open_data_by_postal…
#>    <chr>                          <chr>                                    <dbl>
#>  1 00100 Helsinki Keskusta - Etu… Inhabitants, total…                      18284
#>  2 00100 Helsinki Keskusta - Etu… Females, 2017 (HE)                        9613
#>  3 00100 Helsinki Keskusta - Etu… Males, 2017 (HE)                          8671
#>  4 00100 Helsinki Keskusta - Etu… Average age of inh…                         41
#>  5 00100 Helsinki Keskusta - Etu… 0-2 years, 2017 (H…                        434
#>  6 00100 Helsinki Keskusta - Etu… 3-6 years, 2017 (H…                        521
#>  7 00100 Helsinki Keskusta - Etu… 7-12 years, 2017 (…                        711
#>  8 00100 Helsinki Keskusta - Etu… 13-15 years, 2017 …                        274
#>  9 00100 Helsinki Keskusta - Etu… 16-17 years, 2017 …                        185
#> 10 00100 Helsinki Keskusta - Etu… 18-19 years, 2017 …                        264
#> # … with 72,614 more rows
…
