Making maps using geofi-package • geofi
…
pop_data <- bind_rows(
  tibble(
    municipality_code = polygon$municipality_code
  ) %>% 
    mutate(population = rnorm(n = nrow(.), mean = 2000, sd = 250),
           time = 2020),
  tibble(
    municipality_code = polygon$municipality_code
  ) %>% 
    mutate(population = rnorm(n = nrow(.), mean = 2000, sd = 250),
           time = 2021)
  )
pop_data
#> # A tibble: 618 x 3
#>    municipality_code population  time
#>                <int>      <dbl> <dbl>
#>  1                 5      1952.  2020
#>  2                 9      2354.  2020
#>  3                10      1965.  2020
#>  4                16      1962.  2020
#>  5                18      1843.  2020
#>  6                19      1691.  2020
#>  7                20      2354.  2020
#>  8                35      1814.  2020
#>  9                43      1917.  2020
#> 10                46      1823.  2020
#> # … with 608 more rows
…
