Joining attribute data with geofi data • geofi
…
px_data <- as_tibble(
  as.data.frame(px_raw, 
                column.name.type = "text", 
                variable.value.type = "text")
  ) %>% setNames(janitor::make_clean_names(names(.)))
px_data %>% 
  filter(postal_code_area != "Finland")
} else {
  message("One or more of the following packages is not available: ", 
          paste(libs, collapse = ", "))
}
#> # A tibble: 3,027 × 3
#>    postal_code_area                                year  inhabitants_total_he
#>    <chr>                                           <chr>                <dbl>
#>  1 WHOLE COUNTRY                                   2021               5548241
#>  2 00100  Helsinki keskusta - Etu-Töölö (Helsinki) 2021                 17893
#>  3 00120  Punavuori - Bulevardi (Helsinki)         2021                  7230
#>  4 00130  Kaartinkaupunki (Helsinki)               2021                  1716
#>  5 00140  Kaivopuisto - Ullanlinna (Helsinki)      2021                  7845
#>  6 00150  Punavuori - Eira - Hernesaari (Helsinki) 2021                  9368
#>  7 00160  Katajanokka (Helsinki)                   2021                  4932
#>  8 00170  Kruununhaka (Helsinki)                   2021                  7191
#>  9 00180  Kamppi - Ruoholahti (Helsinki)           2021                 14440
#> 10 00190  Suomenlinna (Helsinki)                   2021                   694
#> # ℹ 3,017 more rows
…
