Making maps using geofi-package • geofi
…
pop_data <- bind_rows(
  tibble(
    municipality_code = polygon$municipality_code
  ) %>% 
    mutate(population = rnorm(n = nrow(.), mean = 2000, sd = 250),
           time = 2020),
  tibble(
    municipality_code = polygon$municipality_code
  ) %>% 
    mutate(population = rnorm(n = nrow(.), mean = 2000, sd = 250),
           time = 2021)
  )
pop_data
#> # A tibble: 618 × 3
#>    municipality_code population  time
#>                <int>      <dbl> <dbl>
#>  1                 5      1391.  2020
#>  2                 9      1999.  2020
#>  3                10      2155.  2020
#>  4                16      2287.  2020
#>  5                18      1545.  2020
#>  6                19      1938.  2020
#>  7                20      1939.  2020
#>  8                35      1929.  2020
#>  9                43      1862.  2020
#> 10                46      2157.  2020
#> # ℹ 608 more rows
…
